<define-tag pagetitle>DSA-4841-1 slurm-llnl</define-tag>
<define-tag report_date>2021-1-27</define-tag>
<define-tag secrefs>CVE-2019-19728 CVE-2020-12693 CVE-2020-27745 CVE-2020-27746</define-tag>
<define-tag packages>slurm-llnl</define-tag>
<define-tag isvulnerable>yes</define-tag>
<define-tag fixed>yes</define-tag>
<define-tag fixed-section>no</define-tag>

#use wml::debian::security



</dl>
