<define-tag pagetitle>DSA-4635-1 proftpd-dfsg</define-tag>
<define-tag report_date>2020-2-26</define-tag>
<define-tag secrefs>CVE-2020-9273 Bug#951800</define-tag>
<define-tag packages>proftpd-dfsg</define-tag>
<define-tag isvulnerable>yes</define-tag>
<define-tag fixed>yes</define-tag>
<define-tag fixed-section>no</define-tag>

#use wml::debian::security



</dl>
