<define-tag pagetitle>DLA-2589-2 mupdf</define-tag>
<define-tag report_date>2021-03-14</define-tag>
<define-tag packages>mupdf</define-tag>
<define-tag isvulnerable>yes</define-tag>
<define-tag fixed>yes</define-tag>
<define-tag fixed-section>no</define-tag>

#use wml::debian::security

