<define-tag pagetitle>DLA-2605-1 mariadb-10.1</define-tag>
<define-tag report_date>2021-03-23</define-tag>
<define-tag secrefs>CVE-2021-27928</define-tag>
<define-tag packages>mariadb-10.1</define-tag>
<define-tag isvulnerable>yes</define-tag>
<define-tag fixed>yes</define-tag>
<define-tag fixed-section>no</define-tag>

#use wml::debian::security

