<define-tag pagetitle>DLA-905-1 ghostscript</define-tag>
<define-tag report_date>2017-4-20</define-tag>
<define-tag secrefs>CVE-2016-10219 CVE-2016-10220 CVE-2017-5951</define-tag>
<define-tag packages>ghostscript</define-tag>
<define-tag isvulnerable>yes</define-tag>
<define-tag fixed>yes</define-tag>
<define-tag fixed-section>no</define-tag>

#use wml::debian::security

