<define-tag pagetitle>DLA-860-1 wordpress</define-tag>
<define-tag report_date>2017-3-17</define-tag>
<define-tag secrefs>CVE-2017-6814 CVE-2017-6815 CVE-2017-6816 Bug#857026</define-tag>
<define-tag packages>wordpress</define-tag>
<define-tag isvulnerable>yes</define-tag>
<define-tag fixed>yes</define-tag>
<define-tag fixed-section>no</define-tag>

#use wml::debian::security

