<define-tag pagetitle>DLA-1440-1 libarchive-zip-perl</define-tag>
<define-tag report_date>2018-7-24</define-tag>
<define-tag secrefs>CVE-2018-10860 Bug#902882</define-tag>
<define-tag packages>libarchive-zip-perl</define-tag>
<define-tag isvulnerable>yes</define-tag>
<define-tag fixed>yes</define-tag>
<define-tag fixed-section>no</define-tag>

#use wml::debian::security

