<define-tag pagetitle>DLA-1431-1 ant</define-tag>
<define-tag report_date>2018-7-19</define-tag>
<define-tag secrefs>CVE-2018-10886</define-tag>
<define-tag packages>ant</define-tag>
<define-tag isvulnerable>yes</define-tag>
<define-tag fixed>yes</define-tag>
<define-tag fixed-section>no</define-tag>

#use wml::debian::security

