<define-tag pagetitle>DSA-4535-1 e2fsprogs</define-tag>
<define-tag report_date>2019-9-27</define-tag>
<define-tag secrefs>CVE-2019-5094 Bug#941139</define-tag>
<define-tag packages>e2fsprogs</define-tag>
<define-tag isvulnerable>yes</define-tag>
<define-tag fixed>yes</define-tag>
<define-tag fixed-section>no</define-tag>

#use wml::debian::security



</dl>
