<define-tag pagetitle>DLA-1963-1 poppler</define-tag>
<define-tag report_date>2019-10-17</define-tag>
<define-tag secrefs>CVE-2019-9959 CVE-2019-10871</define-tag>
<define-tag packages>poppler</define-tag>
<define-tag isvulnerable>yes</define-tag>
<define-tag fixed>yes</define-tag>
<define-tag fixed-section>no</define-tag>

#use wml::debian::security

