<define-tag pagetitle>DLA-1985-1 djvulibre</define-tag>
<define-tag report_date>2019-11-08</define-tag>
<define-tag secrefs>CVE-2019-18804</define-tag>
<define-tag packages>djvulibre</define-tag>
<define-tag isvulnerable>yes</define-tag>
<define-tag fixed>yes</define-tag>
<define-tag fixed-section>no</define-tag>

#use wml::debian::security
